{"success":true,"code":"SUCCESS","message":"操作成功","data":{"tasks":[{"taskId":"9945fba4-026c-11f1-b29f-ea051f7a2f42","taskName":"Manager Approval","taskDescription":null,"processInstanceId":"98f96319-026c-11f1-b29f-ea051f7a2f42","processDefinitionId":"LeaveApprovalProcess:5:98ee3f88-026c-11f1-b29f-ea051f7a2f42","processDefinitionKey":"LeaveApprovalProcess","processDefinitionName":"Leave Approval Process","assignmentType":"USER","assignmentTarget":"3ca0f68e-43eb-4bcf-9c15-1ceaa3d71740","currentAssignee":"3ca0f68e-43eb-4bcf-9c15-1ceaa3d71740","currentAssigneeName":"Penny M Pan","priority":50,"dueDate":null,"status":"PENDING","createdTime":"2026-02-05T08:28:07.642","isDelegated":null,"isClaimed":null,"isOverdue":null,"formKey":null,"businessKey":null,"initiatorId":"3ca0f68e-43eb-4bcf-9c15-1ceaa3d71740","initiatorName":"Penny M Pan","variables":null,"statusLabel":"未知状态","assignmentTypeDescription":"用户分配"}],"totalCount":2,"currentPage":0,"pageSize":1,"totalPages":2,"success":true,"message":null},"errors":null,"timestamp":1770280666511}